COMPSCIX 415.2 Homework 4
…
My Github repository for my assignments can be found at this URL: https://github.com/svalleru/compscix-415-2-assignments

library(tidyverse)
library(dplyr)
library(nycflights13)

Section 5.6.7: #2, #4 and #6 only. Extra Credit: Do #5

2.Come up with another approach that will give you the same output as not_cancelled %>% count(dest) and not_cancelled %>% count(tailnum, wt = distance) (without using count()).

flights %>% 
  filter(!is.na(dep_delay) & !is.na(arr_delay)) %>%
  group_by(dest) %>% summarize(n = n())

## # A tibble: 104 x 2
##    dest      n
##    <chr> <int>
##  1 ABQ     254
##  2 ACK     264
##  3 ALB     418
##  4 ANC       8
##  5 ATL   16837
##  6 AUS    2411
##  7 AVL     261
##  8 BDL     412
##  9 BGR     358
## 10 BHM     269
## #  with 94 more rows

flights %>% 
  filter(!is.na(dep_delay) & !is.na(arr_delay)) %>%
  group_by(tailnum) %>% summarize(n = sum(distance, na.rm = TRUE))

## # A tibble: 4,037 x 2
##    tailnum      n
##    <chr>    <dbl>
##  1 D942DN    3418
##  2 N0EGMQ  239143
##  3 N10156  109664
##  4 N102UW   25722
##  5 N103US   24619
##  6 N104UW   24616
##  7 N10575  139903
##  8 N105UW   23618
##  9 N107US   21677
## 10 N108UW   32070
## #  with 4,027 more rows
…
Looking at the median arrival delay from the box plot and the mean arrival delay per carrier, it seems like carries with code F9 has the worst delays.

Section 10.5: #1, #2, #3 and #6 only

1.How can you tell if an object is a tibble? (Hint: try printing mtcars, which is a regular data frame).

class(mtcars)

## [1] "data.frame"

as_tibble(mtcars)

## # A tibble: 32 x 11
##      mpg   cyl  disp    hp  drat    wt  qsec    vs    am  gear  carb
##    <dbl> <dbl> <dbl> <dbl> <dbl> <dbl> <dbl> <dbl> <dbl> <dbl> <dbl>
##  1  21       6  160    110  3.9   2.62  16.5     0     1     4     4
##  2  21       6  160    110  3.9   2.88  17.0     0     1     4     4
##  3  22.8     4  108     93  3.85  2.32  18.6     1     1     4     1
##  4  21.4     6  258    110  3.08  3.22  19.4     1     0     3     1
##  5  18.7     8  360    175  3.15  3.44  17.0     0     0     3     2
##  6  18.1     6  225    105  2.76  3.46  20.2     1     0     3     1
##  7  14.3     8  360    245  3.21  3.57  15.8     0     0     3     4
##  8  24.4     4  147.    62  3.69  3.19  20       1     0     4     2
##  9  22.8     4  141.    95  3.92  3.15  22.9     1     0     4     2
## 10  19.2     6  168.   123  3.92  3.44  18.3     1     0     4     4
## #  with 22 more rows
…
Looks like data frame is returning the column even when theres a partial match in the name but tibble does not.

3.If you have the name of a variable stored in an object, e.g. var <- "mpg", how can you extract the reference variable from a tibble?

var <- "displ"
tibl <- as_tibble(mpg)
tibl$var

## Warning: Unknown or uninitialised column: 'var'.

## NULL

tibl[var]

## # A tibble: 234 x 1
##    displ
##    <dbl>
##  1   1.8
##  2   1.8
##  3   2  
##  4   2  
##  5   2.8
##  6   2.8
##  7   3.1
##  8   1.8
##  9   1.8
## 10   2  
## #  with 224 more rows
…
