Introduction to Data Science
…
```r
select(flights, year, month, day)
```

```
## # A tibble: 336,776 x 3
##     year month   day
##    <int> <int> <int>
##  1  2013     1     1
##  2  2013     1     1
##  3  2013     1     1
##  4  2013     1     1
##  5  2013     1     1
##  6  2013     1     1
##  7  2013     1     1
##  8  2013     1     1
##  9  2013     1     1
## 10  2013     1     1
## # ... with 336,766 more rows
```

---
### The `select()` verb

```r
select(flights, year:day)
```

```
## # A tibble: 336,776 x 3
##     year month   day
##    <int> <int> <int>
##  1  2013     1     1
##  2  2013     1     1
##  3  2013     1     1
##  4  2013     1     1
##  5  2013     1     1
##  6  2013     1     1
##  7  2013     1     1
##  8  2013     1     1
##  9  2013     1     1
## 10  2013     1     1
## # ... with 336,766 more rows
```
---
### The `select()` verb

```r
select(flights, -(year:day))
```

```
## # A tibble: 336,776 x 16
##    dep_time sched_dep_time dep_delay arr_time sched_arr_time arr_delay
##       <int>          <int>     <dbl>    <int>          <int>     <dbl>
##  1      517            515      2.00      830            819     11.0 
##  2      533            529      4.00      850            830     20.0 
##  3      542            540      2.00      923            850     33.0 
##  4      544            545     -1.00     1004           1022    -18.0 
##  5      554            600     -6.00      812            837    -25.0 
##  6      554            558     -4.00      740            728     12.0 
##  7      555            600     -5.00      913            854     19.0 
##  8      557            600     -3.00      709            723    -14.0 
##  9      557            600     -3.00      838            846    - 8.00
## 10      558            600     -2.00      753            745      8.00
## # ... with 336,766 more rows, and 10 more variables: carrier <chr>, flight
## #   <int>, tailnum <chr>, origin <chr>, dest <chr>, air_time <dbl>,
## #   distance <dbl>, hour <dbl>, minute <dbl>, time_hour <dttm>
```
---
### The `select()` verb - helper functions

```r
select(flights, starts_with('d'))
```

```
## # A tibble: 336,776 x 5
##      day dep_time dep_delay dest  distance
##    <int>    <int>     <dbl> <chr>    <dbl>
##  1     1      517      2.00 IAH       1400
##  2     1      533      4.00 IAH       1416
##  3     1      542      2.00 MIA       1089
##  4     1      544     -1.00 BQN       1576
##  5     1      554     -6.00 ATL        762
##  6     1      554     -4.00 ORD        719
##  7     1      555     -5.00 FLL       1065
##  8     1      557     -3.00 IAD        229
##  9     1      557     -3.00 MCO        944
## 10     1      558     -2.00 ORD        733
## # ... with 336,766 more rows
```
…
- `mutate()` - add or modify existing columns

- `arrange()` - sort the rows

- `summarize()` - aggregate the data across rows (by groups)

---
### The `filter()` verb

```r
filter(flights, month == 1, day == 1)
```

```
## # A tibble: 842 x 19
##     year month   day dep_time sched_dep_time dep_delay arr_time
##    <int> <int> <int>    <int>          <int>     <dbl>    <int>
##  1  2013     1     1      517            515      2.00      830
##  2  2013     1     1      533            529      4.00      850
##  3  2013     1     1      542            540      2.00      923
##  4  2013     1     1      544            545     -1.00     1004
##  5  2013     1     1      554            600     -6.00      812
##  6  2013     1     1      554            558     -4.00      740
##  7  2013     1     1      555            600     -5.00      913
##  8  2013     1     1      557            600     -3.00      709
##  9  2013     1     1      557            600     -3.00      838
## 10  2013     1     1      558            600     -2.00      753
## # ... with 832 more rows, and 12 more variables: sched_arr_time <int>,
## #   arr_delay <dbl>, carrier <chr>, flight <int>, tailnum <chr>, origin
## #   <chr>, dest <chr>, air_time <dbl>, distance <dbl>, hour <dbl>, minute
## #   <dbl>, time_hour <dttm>
```
…
```r
filter(flights, month == 11 | month == 12)
```

```
## # A tibble: 55,403 x 19
##     year month   day dep_time sched_dep_time dep_delay arr_time
##    <int> <int> <int>    <int>          <int>     <dbl>    <int>
##  1  2013    11     1        5           2359      6.00      352
##  2  2013    11     1       35           2250    105         123
##  3  2013    11     1      455            500   -  5.00      641
##  4  2013    11     1      539            545   -  6.00      856
##  5  2013    11     1      542            545   -  3.00      831
##  6  2013    11     1      549            600   - 11.0       912
##  7  2013    11     1      550            600   - 10.0       705
##  8  2013    11     1      554            600   -  6.00      659
##  9  2013    11     1      554            600   -  6.00      826
## 10  2013    11     1      554            600   -  6.00      749
## # ... with 55,393 more rows, and 12 more variables: sched_arr_time <int>,
## #   arr_delay <dbl>, carrier <chr>, flight <int>, tailnum <chr>, origin
## #   <chr>, dest <chr>, air_time <dbl>, distance <dbl>, hour <dbl>, minute
## #   <dbl>, time_hour <dttm>
```
---
### The `filter()` verb

```r
filter(flights, month %in% c(11, 12))
```

```
## # A tibble: 55,403 x 19
##     year month   day dep_time sched_dep_time dep_delay arr_time
##    <int> <int> <int>    <int>          <int>     <dbl>    <int>
##  1  2013    11     1        5           2359      6.00      352
##  2  2013    11     1       35           2250    105         123
##  3  2013    11     1      455            500   -  5.00      641
##  4  2013    11     1      539            545   -  6.00      856
##  5  2013    11     1      542            545   -  3.00      831
##  6  2013    11     1      549            600   - 11.0       912
##  7  2013    11     1      550            600   - 10.0       705
##  8  2013    11     1      554            600   -  6.00      659
##  9  2013    11     1      554            600   -  6.00      826
## 10  2013    11     1      554            600   -  6.00      749
## # ... with 55,393 more rows, and 12 more variables: sched_arr_time <int>,
## #   arr_delay <dbl>, carrier <chr>, flight <int>, tailnum <chr>, origin
## #   <chr>, dest <chr>, air_time <dbl>, distance <dbl>, hour <dbl>, minute
## #   <dbl>, time_hour <dttm>
```
…
```r
mutate(flights_sml,
  gain = arr_delay - dep_delay,
  speed = distance / air_time * 60
)
```

```
## # A tibble: 336,776 x 9
##     year month   day dep_delay arr_delay distance air_time   gain speed
##    <int> <int> <int>     <dbl>     <dbl>    <dbl>    <dbl>  <dbl> <dbl>
##  1  2013     1     1      2.00     11.0      1400    227     9.00   370
##  2  2013     1     1      4.00     20.0      1416    227    16.0    374
##  3  2013     1     1      2.00     33.0      1089    160    31.0    408
##  4  2013     1     1     -1.00    -18.0      1576    183   -17.0    517
##  5  2013     1     1     -6.00    -25.0       762    116   -19.0    394
##  6  2013     1     1     -4.00     12.0       719    150    16.0    288
##  7  2013     1     1     -5.00     19.0      1065    158    24.0    404
##  8  2013     1     1     -3.00    -14.0       229     53.0 -11.0    259
##  9  2013     1     1     -3.00    - 8.00      944    140   - 5.00   405
## 10  2013     1     1     -2.00      8.00      733    138    10.0    319
## # ... with 336,766 more rows
```
---
### The `mutate()` verb

```r
transmute(flights_sml,
  gain = arr_delay - dep_delay,
  hours = air_time / 60,
  gain_per_hour = gain / hours
)
```

```
## # A tibble: 336,776 x 3
##      gain hours gain_per_hour
##     <dbl> <dbl>         <dbl>
##  1   9.00 3.78           2.38
##  2  16.0  3.78           4.23
##  3  31.0  2.67          11.6 
##  4 -17.0  3.05         - 5.57
##  5 -19.0  1.93         - 9.83
##  6  16.0  2.50           6.40
##  7  24.0  2.63           9.11
##  8 -11.0  0.883        -12.5 
##  9 - 5.00 2.33         - 2.14
## 10  10.0  2.30           4.35
## # ... with 336,766 more rows
```
…
- `mutate()` - add or modify existing columns

- **`arrange()` - sort the rows**

- `summarize()` - aggregate the data across rows (by groups)

---
### The `arrange()` verb

```r
arrange(flights, month, day, dep_time)
```

```
## # A tibble: 336,776 x 19
##     year month   day dep_time sched_dep_time dep_delay arr_time
##    <int> <int> <int>    <int>          <int>     <dbl>    <int>
##  1  2013     1     1      517            515      2.00      830
##  2  2013     1     1      533            529      4.00      850
##  3  2013     1     1      542            540      2.00      923
##  4  2013     1     1      544            545     -1.00     1004
##  5  2013     1     1      554            600     -6.00      812
##  6  2013     1     1      554            558     -4.00      740
##  7  2013     1     1      555            600     -5.00      913
##  8  2013     1     1      557            600     -3.00      709
##  9  2013     1     1      557            600     -3.00      838
## 10  2013     1     1      558            600     -2.00      753
## # ... with 336,766 more rows, and 12 more variables: sched_arr_time <int>,
## #   arr_delay <dbl>, carrier <chr>, flight <int>, tailnum <chr>, origin
## #   <chr>, dest <chr>, air_time <dbl>, distance <dbl>, hour <dbl>, minute
## #   <dbl>, time_hour <dttm>
```
---
### The `arrange()` verb

```r
arrange(flights, desc(month), day, desc(dep_time))
```

```
## # A tibble: 336,776 x 19
##     year month   day dep_time sched_dep_time dep_delay arr_time
##    <int> <int> <int>    <int>          <int>     <dbl>    <int>
##  1  2013    12     1     2354           2359   -  5.00      429
##  2  2013    12     1     2321           2300     21.0        23
##  3  2013    12     1     2301           1955    186          19
##  4  2013    12     1     2258           2300   -  2.00     2350
##  5  2013    12     1     2255           2250      5.00        1
##  6  2013    12     1     2251           2255   -  4.00     2357
##  7  2013    12     1     2251           2048    123         102
##  8  2013    12     1     2251           2200     51.0        50
##  9  2013    12     1     2246           2159     47.0      2328
## 10  2013    12     1     2242           2250   -  8.00        4
## # ... with 336,766 more rows, and 12 more variables: sched_arr_time <int>,
## #   arr_delay <dbl>, carrier <chr>, flight <int>, tailnum <chr>, origin
## #   <chr>, dest <chr>, air_time <dbl>, distance <dbl>, hour <dbl>, minute
## #   <dbl>, time_hour <dttm>
```
…
`summarize()` only makes sense if you *group by* a variable

```r
by_dest <- group_by(flights, dest)
summarise(by_dest,
  count = n(),
  dist = mean(distance, na.rm = TRUE),
  delay = mean(arr_delay, na.rm = TRUE)
)
```

```
## # A tibble: 105 x 4
##    dest  count  dist  delay
##    <chr> <int> <dbl>  <dbl>
##  1 ABQ     254  1826   4.38
##  2 ACK     265   199   4.85
##  3 ALB     439   143  14.4 
##  4 ANC       8  3370 - 2.50
##  5 ATL   17215   757  11.3 
##  6 AUS    2439  1514   6.02
##  7 AVL     275   584   8.00
##  8 BDL     443   116   7.05
##  9 BGR     375   378   8.03
## 10 BHM     297   866  16.9 
## # ... with 95 more rows
```
---
### The `summarize()` verb and the pipe

```r
flights %>% 
  group_by(dest) %>% 
  summarise(
    count = n(),
    dist = mean(distance, na.rm = TRUE),
    delay = mean(arr_delay, na.rm = TRUE)
  )
```

```
## # A tibble: 105 x 4
##    dest  count  dist  delay
##    <chr> <int> <dbl>  <dbl>
##  1 ABQ     254  1826   4.38
##  2 ACK     265   199   4.85
##  3 ALB     439   143  14.4 
##  4 ANC       8  3370 - 2.50
##  5 ATL   17215   757  11.3 
##  6 AUS    2439  1514   6.02
##  7 AVL     275   584   8.00
##  8 BDL     443   116   7.05
##  9 BGR     375   378   8.03
## 10 BHM     297   866  16.9 
## # ... with 95 more rows
```
…
