COMPSCIX 415.2 Homework 5/Midterm
…
2.Create a new column in the diamonds data set called price_per_carat that shows the price of each diamond per carat (hint: divide). Only show me the code, not the output.

diamonds$price_per_carat <- (diamonds$price/diamonds$carat)

3.For each cut of diamond in the diamonds data set, how many diamonds, and what proportion, have a price > 10000 and a carat < 1.5? There are several ways to get to an answer, but your solution must use the data wrangling verbs from the tidyverse in order to get credit.

Do the results make sense? Why?

Do we need to be wary of any of these numbers? Why?

result <- diamonds %>% filter(price > 10000 & carat < 1.5)
result

## # A tibble: 834 x 11
##    carat cut   color clarity depth table price     x     y     z
##    <dbl> <ord> <ord> <ord>   <dbl> <dbl> <int> <dbl> <dbl> <dbl>
##  1  1.03 Ideal E     VVS2     60.6    59 10003  6.5   6.53  3.95
##  2  1.23 Very G     VVS2     60.6    55 10004  6.93  7.02  4.23
##  3  1.25 Ideal F     VS2      61.6    55 10006  6.93  6.96  4.28
##  4  1.21 Very F     VS1      62.3    58 10009  6.76  6.85  4.24
##  5  1.01 Fair  D     SI2      64.6    58 10011  6.25  6.2   4.02
##  6  1.05 Ideal F     VVS2     60.5    55 10011  6.67  6.58  4.01
##  7  1.35 Prem G     VS1      62.1    59 10012  7.06  7.02  4.37
##  8  1.13 Ideal F     VS1      60.9    57 10016  6.73  6.76  4.11
##  9  1.21 Prem F     VS1      62.6    59 10018  6.81  6.76  4.25
## 10  1.01 Very F     VVS1     62.9    57 10019  6.35  6.41  4.01
## #  with 824 more rows, and 1 more variable: price_per_carat <dbl>
…
5.What proportion of sales is missing for each city?

my_tibl <- txhousing %>%
  mutate(missing_sales = is.na(sales)) %>%
  group_by(city, missing_sales) %>%
  summarise(n = n()) %>%
  mutate(prop = n / sum(n))
my_tibl[-c(2)]

## # A tibble: 66 x 3
## # Groups:   city [46]
##    city                n   prop
##    <chr>           <int>  <dbl>
##  1 Abilene           187 1     
##  2 Amarillo          187 1     
##  3 Arlington         187 1     
##  4 Austin            187 1     
##  5 Bay Area          187 1     
##  6 Beaumont          187 1     
##  7 Brazoria County   173 0.925 
##  8 Brazoria County    14 0.0749
##  9 Brownsville       185 0.989 
## 10 Brownsville         2 0.0107
## #  with 56 more rows
…
