Introduction to Data Science
…
```r
flights %>% 
  group_by(dest) %>% 
  summarise(
    count = n(),
    dist = mean(distance, na.rm = TRUE),
    delay = mean(arr_delay, na.rm = TRUE)
  )
```

```
## # A tibble: 105 x 4
##    dest  count  dist  delay
##    <chr> <int> <dbl>  <dbl>
##  1 ABQ     254  1826   4.38
##  2 ACK     265   199   4.85
##  3 ALB     439   143  14.4 
##  4 ANC       8  3370 - 2.50
##  5 ATL   17215   757  11.3 
##  6 AUS    2439  1514   6.02
##  7 AVL     275   584   8.00
##  8 BDL     443   116   7.05
##  9 BGR     375   378   8.03
## 10 BHM     297   866  16.9 
## # ... with 95 more rows
```
…
Counting number of observations, number of distinct observations, and number of non-missing observations:

```r
flights %>% 
  group_by(dest) %>% 
  summarise(
    count = n(),
    count_dist = n_distinct(arr_delay),
    count_non_miss = sum(!is.na(arr_delay))
  )
```

```
## # A tibble: 105 x 4
##    dest  count count_dist count_non_miss
##    <chr> <int>      <int>          <int>
##  1 ABQ     254        122            254
##  2 ACK     265         77            264
##  3 ALB     439        133            418
##  4 ANC       8          7              8
##  5 ATL   17215        372          16837
##  6 AUS    2439        225           2411
##  7 AVL     275         85            261
##  8 BDL     443        121            412
##  9 BGR     375        120            358
## 10 BHM     297        125            269
## # ... with 95 more rows
```
---
### Counts without `summarize()`

Counting number of observations:

```r
flights %>% 
  count(dest)
```

```
## # A tibble: 105 x 2
##    dest      n
##    <chr> <int>
##  1 ABQ     254
##  2 ACK     265
##  3 ALB     439
##  4 ANC       8
##  5 ATL   17215
##  6 AUS    2439
##  7 AVL     275
##  8 BDL     443
##  9 BGR     375
## 10 BHM     297
## # ... with 95 more rows
```
…
Logicals evaluate to `TRUE` or `FALSE`. When plugging in logicals to numeric functions, `TRUE = 1` and `FALSE = 0`.

```r
flights %>%
  group_by(year, month, day) %>% 
  summarise(non_miss = sum(!is.na(dep_time)), 
            n_early = sum(dep_time < 500, na.rm = TRUE),
            prop_early = mean(dep_time < 500, na.rm = TRUE))
```

```
## # A tibble: 365 x 6
## # Groups: year, month [?]
##     year month   day non_miss n_early prop_early
##    <int> <int> <int>    <int>   <int>      <dbl>
##  1  2013     1     1      838       0    0      
##  2  2013     1     2      935       3    0.00321
##  3  2013     1     3      904       4    0.00442
##  4  2013     1     4      909       3    0.00330
##  5  2013     1     5      717       3    0.00418
##  6  2013     1     6      831       2    0.00241
##  7  2013     1     7      930       2    0.00215
##  8  2013     1     8      895       1    0.00112
##  9  2013     1     9      897       3    0.00334
## 10  2013     1    10      929       3    0.00323
## # ... with 355 more rows
```
…
