Introduction to Data Science
…
```r
n <- 1000 #how many samples
slopes <- rep(NA, n) # empty vector for saving coefficients
for(i in 1:n) {
  diam_samp <- diamonds %>% sample_n(10000) # random sample
  diam_samp_lm <- lm(price ~ carat, data = diam_samp)
  slopes[i] <- coef(diam_samp_lm)[2] # store the coefficient
}
slopes <- as_tibble(slopes)
slopes
```

```
## # A tibble: 1,000 x 1
##    value
##    <dbl>
##  1 7780.
##  2 7807.
##  3 7765.
##  4 7814.
##  5 7622.
##  6 7852.
##  7 7720.
##  8 7786.
##  9 7763.
## 10 7791.
## # ... with 990 more rows
```
…
Let's do the same thing, but let's save our 1000 samples, models, and slopes all in one tibble. 

```r
all_results
```

```
## # A tibble: 1,000 x 3
##    my_samps              my_mods  slopes
##    <list>                <list>    <dbl>
##  1 <tibble [1,000 x 10]> <S3: lm>  7658.
##  2 <tibble [1,000 x 10]> <S3: lm>  8000.
##  3 <tibble [1,000 x 10]> <S3: lm>  7663.
##  4 <tibble [1,000 x 10]> <S3: lm>  7628.
##  5 <tibble [1,000 x 10]> <S3: lm>  7770.
##  6 <tibble [1,000 x 10]> <S3: lm>  7679.
##  7 <tibble [1,000 x 10]> <S3: lm>  7791.
##  8 <tibble [1,000 x 10]> <S3: lm>  7639.
##  9 <tibble [1,000 x 10]> <S3: lm>  7834.
## 10 <tibble [1,000 x 10]> <S3: lm>  7563.
## # ... with 990 more rows
```
…
