Introduction to Data Science
…
where `\(\huge k\)` is half of the size of the time window.
---
### The Moving Average

We can use the `ma()` function from the `forecast` package.

```r
daily_data <- daily_data %>% mutate(cnt_ma7 = ma(clean_cnt, order = 7),
                                    cnt_ma30 = ma(clean_cnt, order = 30))

daily_data %>% select(cnt, cnt_ma7, cnt_ma30)
```

```
## # A tibble: 731 x 3
##      cnt cnt_ma7 cnt_ma30
##    <int>   <dbl>    <dbl>
##  1   985      NA       NA
##  2   801      NA       NA
##  3  1349      NA       NA
##  4  1562    1345       NA
##  5  1600    1341       NA
##  6  1606    1344       NA
##  7  1510    1340       NA
##  8   959    1297       NA
##  9   822    1235       NA
## 10  1321    1206       NA
## # ... with 721 more rows
```
…
