Introduction to Data Science
…
3. admissions decision
---
### Simpson's paradox

... is when groups of data show one particular trend, but this trend is reversed when the groups are combined together.

Famous example: Berkeley admissions

```r
ucb_ad <- read_csv(file = 'ucb_admiss.csv')
ucb_ad 
```

```
## # A tibble: 24 x 4
##    Admit    Gender Dept   Freq
##    <chr>    <chr>  <chr> <dbl>
##  1 Admitted Male   A       512
##  2 Rejected Male   A       313
##  3 Admitted Female A        89
##  4 Rejected Female A        19
##  5 Admitted Male   B       353
##  6 Rejected Male   B       207
##  7 Admitted Female B        17
##  8 Rejected Female B         8
##  9 Admitted Male   C       120
## 10 Rejected Male   C       205
## # ... with 14 more rows
```
…
